// Jest Snapshot v1, https://goo.gl/fbAQLP

exports[`ResourceLinksBlock with defaults renders correct component 1`] = `
<div
  class="gl-mt-5"
  id="resource-links"
>
  <div
    class="card card-slim gl-overflow-hidden"
  >
    <div
      class="card-header gl-display-flex gl-justify-content-space-between panel-empty-heading border-bottom-0"
    >
      <h3
        class="card-title h5 position-relative gl-my-0 gl-display-flex gl-align-items-center gl-h-7"
      >
        <a
          aria-hidden="true"
          class="gl-link anchor position-absolute gl-text-decoration-none"
          href="#resource-links"
          id="user-content-resource-links"
        />
         Linked resources 
        <a
          aria-label="Use this space to add links to the resources your team needs as they work to resolve the incident."
          class="gl-link gl-display-flex gl-align-items-center gl-ml-2 gl-text-gray-500"
          data-testid="help-link"
          href="/help/user/project/issues/linked_resources"
          rel="noopener"
          target="_blank"
        >
          <svg
            aria-hidden="true"
            class="gl-icon s12"
            data-testid="question-icon"
            role="img"
            title="Use this space to add links to the resources your team needs as they work to resolve the incident."
          >
            <use
              href="#question"
            />
          </svg>
        </a>
         
        <div
          class="gl-display-inline-flex"
        >
          <div
            class="gl-display-inline-flex gl-mx-5"
          >
            <span
              class="gl-display-inline-flex gl-align-items-center"
            >
              <svg
                aria-hidden="true"
                class="gl-mr-2 gl-text-gray-500 gl-icon s16"
                data-testid="link-icon"
                role="img"
              >
                <use
                  href="#link"
                />
              </svg>
              
              ...
            
            </span>
          </div>
           
          <button
            aria-label="Add a resource link"
            class="btn btn-default btn-md gl-button btn-icon"
            type="button"
          >
            <!---->
             
            <svg
              aria-hidden="true"
              class="gl-button-icon gl-icon s16"
              data-testid="plus-icon"
              role="img"
            >
              <use
                href="#plus"
              />
            </svg>
              
            <!---->
          </button>
        </div>
      </h3>
    </div>
     
    <div
      class="bg-gray-light"
    >
      <div
        class="card-body bordered-box gl-bg-white"
        style="display: none;"
      >
        <form>
          <fieldset
            aria-describedby=""
            class="form-group gl-form-group"
            id="__BVID__14"
          >
            <legend
              class="bv-no-focus-ring col-form-label pt-0 col-form-label"
              id="__BVID__14__BV_label_"
              tabindex="-1"
            >
              
      Text (Optional)
      
              <!---->
               
              <!---->
            </legend>
            <div
              aria-labelledby="__BVID__14__BV_label_"
              class="bv-no-focus-ring"
              role="group"
              tabindex="-1"
            >
              <input
                class="gl-form-input form-control"
                data-testid="link-text-input"
                id="__BVID__16"
                type="text"
              />
              <!---->
              <!---->
              <!---->
            </div>
          </fieldset>
           
          <fieldset
            aria-describedby=""
            class="form-group gl-form-group"
            id="__BVID__18"
          >
            <legend
              class="bv-no-focus-ring col-form-label pt-0 col-form-label"
              id="__BVID__18__BV_label_"
              tabindex="-1"
            >
              
      Link
      
              <!---->
               
              <!---->
            </legend>
            <div
              aria-labelledby="__BVID__18__BV_label_"
              class="bv-no-focus-ring"
              role="group"
              tabindex="-1"
            >
              <input
                class="gl-form-input form-control"
                data-testid="link-value-input"
                id="__BVID__20"
                type="text"
              />
              <!---->
              <!---->
              <!---->
            </div>
          </fieldset>
           
          <div
            class="gl-mt-5 gl-clearfix"
          >
            <button
              class="btn gl-float-left btn-confirm btn-md disabled gl-button"
              data-testid="add-button"
              disabled="disabled"
              type="submit"
            >
              <!---->
               
              <!---->
                
              <span
                class="gl-button-text"
              >
                
      Add
    
              </span>
            </button>
             
            <button
              class="btn gl-float-right btn-default btn-md gl-button"
              type="button"
            >
              <!---->
               
              <!---->
                
              <span
                class="gl-button-text"
              >
                
      Cancel
    
              </span>
            </button>
          </div>
        </form>
      </div>
       
      <div
        class="gl-mb-2"
      >
        <div
          class="gl-spinner-container gl-mt-2"
          role="status"
        >
          <span
            aria-label="Fetching linked resources"
            class="gl-vertical-align-text-bottom! gl-spinner gl-spinner-dark gl-spinner-sm"
          />
        </div>
      </div>
       
      <!---->
    </div>
  </div>
</div>
`;
